{
	"styles": {
		"Login": {
			"text": "Connexion"
		},
		"Forgot_Password": {
			"text": "Vous avez oublié le mot de passe?"
		},
		"usernameTextfield_placeholder": {
			"placeholder": "user@example.com"
		},
		"passwordTextfield_placeholder": {
			"placeholder": "mot de passe"
		},

		"Back": {
            "fontSize": "1.2em",
			"text": "Précédent"
		},

        "Accept": {
        	"text": "Accepter"
        },
        "Cancel": {
			"text": "Annuler"
		},
		"Help": {
			"text": "Aide"
		},
		"Feedback": {
			"text": "Send Feedback"
		},
		"Done": {
			"text": "Terminer"
		},
		"Log_Out": {
			"text": "Deconnexion"
		},
		
		"Kind": {
			"text": "Genre"
		},
		"Size": {
			"text": "Taille"
		},
		"Modified": {
			"text": "Modifié"
		},
		"Version": {
			"text": "Version"
		},

		"SHOW": {
			"text": "MONTRER"
		},
		"VIEW": {
			"text": "VOIR"
		},
		"SORT": {
			"text": "TRIER"
		},
		"NAME": {
			"text": "NOM"
		},
		"KIND": {
			"text": "GENRE"
		},
		"MODIFIED": {
			"text": "MODIFIED"
		},
		"SIZE": {
			"text": "TAILLE"
		},

		"Loading_CollectionView": {
			"text": "En cours de chargement...",
			"y": "19px",
			"width": "100px"
		},
		"Installing_CollectionView": {
			"text": "En cours d'installation...",
			"y": "19px",
			"width": "110px"
		},
		"Complete_CollectionView": {
			"text": "Terminé",
			"y": "30px"
		},

		"Legal_Notices": {
			"text": "Avis juridiques"
		},
		"Contact_Customer_Support": {
			"text": "Contacter le soutient client"
		},
		"Contact_Support": {
			"text": "contacter le support"
		},
		"Nothing_in_this_Collection": {
			"text": "Rien dans cette collection"
		},

		"Options": {
			"text": "Options"
		},
		"Search_Library": {
			"placeholder": "Chercher dans la bibliothèque"
		},

		"options_log_OutButton_text": {
            "fontSize": "1.8em",
			"text": "   Deconnexion"
		},
		"options_helpButton_text": {
            "fontSize": "1.8em",
			"text": "   Aider"
		},
		"optionsfeedbackButton_text": {
            "fontSize": "1.8em",
			"text": "   Send Feedback"
		},
		"options_downloadQueueButton_text": {
            "fontSize": "1.8em",
			"text": "   Téléchargement en attente"
		},
		"options_downloadedFilesButton_text": {
            "fontSize": "1.8em",
			"text": "        Télécharger les fichiers"
		},
		"options_allFilesButton_text": {
            "fontSize": "1.8em",
			"text": "        Tous les fichiers"
		},
		"options_listButton_text": {
            "fontSize": "1.8em",
			"text": "        List"
		},
		"options_gridButton_text": {
            "fontSize": "1.8em",
			"text": "        Grid"
		},
		"options_lastModifyButton_text": {
            "fontSize": "1.8em",
			"text": "        Plus récent - Plus ancien"
		},
		"options_titleButton_text": {
            "fontSize": "1.8em",
			"text": "        A - Z"
		},
		"packageDetails_removeButton_text": {
			"text": "     Retirer de l' appareil"
		},
		"packageDetails_emailButton_text": {
			"text": "     Envoyer par courriel"
		},

		"package_Open": {
        	"text": "Open.fr"
		},
		"package_OpenExisting": {
        	"text": "Openexisting.fr"
		},			
		"package_Download": {
			"text": "Download.fr"
		},
		"package_Remove": {
			"text": "Remove.fr"
		},
		"package_Share": {
        	"text": "Send.fr"
		},
		"package_Update": {
			"text": "Update.fr"
		},

		"supportText_page1_iphone": {
			"text": "<span style='font-size:16px;'>Bienvenue à la Bibliothèque mobile<br /><br /></span><span style='font-size:14px;'>Cette appli vous permet de télécharger et d'afficher des applets et du contenu interactifs mémorisés dans WorkCloud.</span>"
		},
		"supportText_page2_iphone": {
			"text": "<span style='font-size:16px;'>Téléchargerment<br /><br /></span><span style='font-size:14px;'>Vous pouvez télécharger n'importe quoi en touchant et en choisissant Télécharger.<br /><br />Touchez ce que vous avez téléchargé pour voir les options.</span>"
		},
		"supportText_page3_iphone": {
			"text": "<span style='font-size:16px;'>Mise à jour<br /><br /></span><span style='font-size:14px;'>Si vous voyez cette icône sur quelque chose, cela signifie que vous pouvez télécharger une version à jour.</span>"
		},
		"supportText_page4_iphone": {
			"text": "<span style='font-size:16px;'>Sortir, Dessiner et Partager<br /><br /></span><span style='font-size:14px;'>Quand vous êtes dans un applet, glissez votre doigt à partir de la gauche de l'écran pour afficher le barre à outils.</span>"
		},

		"supportText_page1": {
			"text": "<span style='font-size:32px;'>Bienvenue à la Bibliothèque mobile<br /><br /></span><span style='font-size:24px;'>Cette appli vous permet de télécharger et d'afficher des applets et du contenu interactifs mémorisés dans WorkCloud.</span>"
		},
		"supportText_page2": {
			"text": "<span style='font-size:32px;'>Télécharger et ouvrir<br /><br /></span><span style='font-size:24px;line-height:24px;'>Tout ce qui contient une <span style='font-family:ScrollMotion_icon;font-size:36px;'>Cloud</span> peut être téléchargé en touchant l'écran et en choisissant Télécharger. S'il y a une <span style='font-family:ScrollMotion_icon;font-size:36px;'>Refresh</span> près du bouton, cela signifie que vous pouvez télécharger une version à jour.<br /><br />Une fois téléchargé, toucher l'écran pour l'ouvrir. Touchez l'écran pour voir toutes les options.</span>"
		},
		"supportText_page3": {
			"text": "<span style='font-size:32px;'>Sortir, Dessiner et Partager<br /><br /></span><span style='font-size:24px;'>Quand vous êtes dans un applet, glissez votre doigt à partir de la gauche de l'écran pour afficher le barre à outils.</span>"
		},
		"supportText_page4": {
			"text": "<span style='font-size:32px;'>Attendez…. ce n'est pas tout!<br /><br /></span><span style='font-size:24px;'>Allez au menu des options si vous désirez voir vos fichiers en tant que liste, ce qui est en train d'être téléchargé ou tout ce que vous avez sur votre appareil. </span>"
		},
		"upgradeIOS": {
			"text": "<span style='font-size:32px;'>MobileLibrary<br /><br /></span><span style='font-size:24px;'>Cette application exige au moins iOS 7.<br/><br/> Pour en savoir plus au sujet de iOS, visitez www.apple.com/ios</span>"
		},
		"forceUpdate": {
			"text": "<span style='font-size:32px;'>Mise à jour applet<br /><br /></span><span style='font-size:24px;'>Une mise à jour forcée a été émise pour cet applet.<br/><br/> Relancé à l'installation.</span>"
		}
    }
}
